…
43            Tennessee  TN         South    6346105   219  3.4509357
44                Texas  TX         South   25145561   805  3.2013603
45                 Utah  UT          West    2763885    22  0.7959810
46              Vermont  VT     Northeast     625741     2  0.3196211
47             Virginia  VA         South    8001024   250  3.1246001
48           Washington  WA          West    6724540    93  1.3829942
49        West Virginia  WV         South    1852994    27  1.4571013
50            Wisconsin  WI North Central    5686986    97  1.7056487
51              Wyoming  WY          West     563626     5  0.8871131
> 
> #group by region
> murders %>$ group_by(region)
Error: unexpected input in "murders %>$ group_by(region)"
> murders %>% group_by(region)
# A tibble: 51 × 6
# Groups:   region [4]
   state                abb   region    population total  rate
   <chr>                <chr> <fct>          <dbl> <dbl> <dbl>
 1 Alabama              AL    South        4779736   135  2.82
 2 Alaska               AK    West          710231    19  2.68
 3 Arizona              AZ    West         6392017   232  3.63
 4 Arkansas             AR    South        2915918    93  3.19
 5 California           CA    West        37253956  1257  3.37
 6 Colorado             CO    West         5029196    65  1.29
 7 Connecticut          CT    Northeast    3574097    97  2.71
 8 Delaware             DE    South         897934    38  4.23
 9 District of Columbia DC    South         601723    99 16.5 
10 Florida              FL    South       19687653   669  3.40
# … with 41 more rows
…
